[ {
  "button_panels": [
  {
    "button_panel_label": "movement controls",
    "buttons": [
      {"command": "A",	"label": "turn left"},
      {"command": "W",	"label": "move forward"},
      {"command": "S",	"label": "move backward"},
      {"command": "D",	"label": "turn right"},
      {"command": "VL",	"label": "view left"},
      {"command": "VR",	"label": "view right"}
    ]
  },
  {
    "button_panel_label": "arm controls",
    "buttons": [
      {"command": "AU",	"label": "Upper Arm up"},
      {"command": "AD",	"label": "Upper Arm down"},
      {"command": "BU",	"label": "Lower Arm up"},
      {"command": "BD",	"label": "Lower Arm down"},
      {"command": "GO",	"label": "Grabber open"},
      {"command": "GC",	"label": "Grabber close"}
    ]
  }
  ]
} ]
